{
  "development": {
    "username": "postgres",
    "password": "gajahsql",
    "database": "game_db_dev",
    "host": "localhost",
    "dialect": "postgres"
  },
  "test": {
    "username": "postgres",
    "password": "gajahsql",
    "database": "game_db_test",
    "host": "localhost",
    "dialect": "postgres"
  },
  "production": {
    "username": "wmxwkspoxjhgex",
    "password": "e975d3810ec338baf49bd227be3c5e76b42c073cceb28b0f1b2a494e25aef73c",
    "database": "d5fq7rn3puuilt",
    "host": "ec2-107-22-238-112.compute-1.amazonaws.com",
    "dialect": "postgres",
    "dialectOptions": {
      "ssl": {
        "require": true,
        "rejectUnauthorized": false
      }
    }
  }
}